19,6,5,17,48,18,0,0.12,0,400,24.1,21.5,0.8,1,0,0,0,0,0,23.7,23.1,21.8,25,26,805,33,11.95,53.52322,-113.52632,63
19,6,5,17,49,23,1,0.26,0,409,24.5,21.7,1,3,0,0,0,0,0.0006,23.5,23.1,21.3,26,27,787,33,11.93,53.486092,-113.46457,64
19,6,5,17,50,24,1,0.21,0,419,24.8,21.4,1.4,2.1,63,117,188,121,0.0142,23.3,22.9,20,26,30,792,33,11.87,53.486019,-113.46458,65
19,6,5,17,51,25,0,0.25,0,423,25.2,21.1,1.3,1.4,58,98,188,117,0.0167,23.6,22.5,20,25,30,770,33,11.88,53.485996,-113.46458,65
19,6,5,17,52,26,0,0.28,0,430,25.6,20.6,1.4,2.5,0,0,1,80,0.0164,24.3,22.3,19.6,24,31,778,33,11.86,53.485989,-113.46464,66
19,6,5,17,53,26,1,0.28,0,431,26,20.2,1.3,1.7,2,1,1,28,0.0202,25,22.3,19.1,23,32,761,33,11.87,53.485985,-113.46464,67
19,6,5,17,54,27,0,0.29,0,428,26.2,19.9,1.4,1.5,0,0,0,0,0.0225,25.5,22.2,18.8,22,32,827,33,11.88,53.485985,-113.46464,68
19,6,5,17,55,28,0,0.29,0,420,26.4,19.7,1.4,2.3,0,0,0,0,0.021,26,22.1,19,22,33,739,33,11.9,53.485989,-113.46461,68
19,6,5,17,56,29,0,0.3,0,434,26.7,19.5,1.4,1.6,0,0,0,0,0.0229,26.4,22.1,18.9,21,33,774,33,11.87,53.485989,-113.46461,69
