20,3,21,17,20,9,6,0.98,0.01,538,35.4,5.3,0,0,0,0,0,8.7,30.9,8.8,27.7,9.6,28.1,18,167.57,26239,0,22.5,11.08,-0.06,1,53.5194,-113.519,85
20,3,21,17,20,9,6,0.98,0.01,538,35.4,5.3,0,0,0,0,0,8.7,30.9,8.8,27.7,9.6,28.1,18,167.57,26239,0,22.5,11.08,-0.06,1,53.5194,-113.519,85
20,3,21,17,20,9,6,0.98,0.01,538,35.4,5.3,0,0,0,0,0,8.7,30.9,8.8,27.7,9.6,28.1,18,167.57,26239,0,22.5,11.08,-0.06,1,53.5194,-113.519,85
20,3,21,17,20,9,6,0.98,0.01,538,35.4,5.3,0,0,0,0,0,8.7,30.9,8.8,27.7,9.6,28.1,18,167.57,26239,0,22.5,11.08,-0.06,1,53.5194,-113.519,85
